# Set hostname
    hostname
    sudo hostnamectl set-hostname S2.rosebud.MacGuffins.Test
    hostname

# create handy add-to-hosts file scriptable
    alias="$( hostname -s )"
    fqdn="$( hostnamectl | grep Pretty | cut -f 2 -d : )"
    ipv4="$( ip a | grep -o 192.*/ | tr -d / )"
    ipv4="$( ip a | grep -o 10.*/ | tr -d / )"
    echo $ipv4 $fqdn $alias
    echo "$ipv4 $fqdn $alias" | sudo tee -a /etc/hosts
    sudo cat /etc/hosts

# add easy commons access
  # first ensure all is up to date
    sudo apt update
    sudo apt install autofs

  # uncomment line \net  -hosts
    sudo vi /etc/auto.master 
    sudo service autofs restart
    ls /net/192.168.134.1/srv/commons
    sudo -s
    cat /net/192.168.134.1/srv/commons/add-to-hosts >> /etc/hosts
    cat /etc/hosts
    ln -s /net/RackMaster/srv/commons/ /commons
