
In openSuSe, the 'useradd' command is not in your path.  To find out where it lives:
  $ useradd
Add the path to your .bashrc file:

export PATH=$PATH:/sbin:/usr/sbin:/usr/local/sbin

To reload your .bashrc file:
  $ . .bashrc

--------------------------------------------------------------------------------
To view a list of all users and see which groups they are a assigned to:

  $ cat /etc/group
--------------------------------------------------------------------------------
Soft Mount to shared directory; don't have to have autofs enabled or running....
  $ sudo mount 192.168.134.1:/srv/commons /mnt/ -o intr,soft
--------------------------------------------------------------------------------
--------------------------------------------------------------------------------
--------------------------------------------------------------------------------
--------------------------------------------------------------------------------
--------------------------------------------------------------------------------
--------------------------------------------------------------------------------
--------------------------------------------------------------------------------
--------------------------------------------------------------------------------
--------------------------------------------------------------------------------











