cd /shared
mkdir linux_admins
chmod g+s linux_admins/
chown :linux_admins linux_admins/
mkdir contractors
chmod g+s contractors/
chown :contractors contractors/
sudo chown :contractors contractors/
ll
sudo chown jan contractors/ linux_admins/
ll
chmod o-rx linux_admins/
sudo chmod o-rx linux_admins/
ll
chmod g+w linux_admins/ contractors/
sudo chmod g+w linux_admins/ contractors/
ll
cd contractors/
echo /shared/ftetest {1,2,3}{a,b,c}
/shared/ftetest {1,2,3}{a,b,c}
sudo vim /etc/profile
exit
cd /shared/contractors/
/shared/ftetest {1,2,3}{a,b,c}
cd ../linux_admins/
/shared/ftetest {1,2,3}{a,b,c}
sudo su - alice
sudo su - dani
sudo su - eve
sudo su - dani
sudo su - eve
